lab7/simulation/qsim/BinCounter.msim.vcd
$comment
	File created using the following command:
		vcd file BinCounter.msim.vcd -direction
$end
$date
	Wed Mar 06 10:56:25 2024
$end
$version
	ModelSim Version 2020.1
$end
$timescale
	1ps
$end

$scope module BinCounter_vlg_vec_tst $end
$var reg 1 ! Clear $end
$var reg 1 " Count $end
$var wire 1 # y0 $end
$var wire 1 $ y1 $end
$var wire 1 % y2 $end

$scope module i1 $end
$var wire 1 & gnd $end
$var wire 1 ' vcc $end
$var wire 1 ( unknown $end
$var tri1 1 ) devclrn $end
$var tri1 1 * devpor $end
$var tri1 1 + devoe $end
$var wire 1 , ~QUARTUS_CREATED_GND~I_combout $end
$var wire 1 - ~QUARTUS_CREATED_UNVM~~busy $end
$var wire 1 . ~QUARTUS_CREATED_ADC1~~eoc $end
$var wire 1 / ~QUARTUS_CREATED_ADC2~~eoc $end
$var wire 1 0 y0~output_o $end
$var wire 1 1 y1~output_o $end
$var wire 1 2 y2~output_o $end
$var wire 1 3 Count~input_o $end
$var wire 1 4 Count~inputclkctrl_outclk $end
$var wire 1 5 inst2~0_combout $end
$var wire 1 6 Clear~input_o $end
$var wire 1 7 Clear~inputclkctrl_outclk $end
$var wire 1 8 inst2~q $end
$var wire 1 9 inst1~0_combout $end
$var wire 1 : inst1~q $end
$var wire 1 ; inst~0_combout $end
$var wire 1 < inst~q $end
$upscope $end
$upscope $end
$enddefinitions $end
#0
$dumpvars
0!
0"
0#
0$
0%
0&
1'
x(
1)
1*
1+
0,
z-
z.
z/
00
01
02
03
04
15
06
07
08
09
0:
0;
0<
$end
#100000
1!
1"
13
16
17
14
18
10
1#
19
05
#200000
0"
03
04
#300000
1"
13
14
1:
08
00
11
1$
0#
15
#400000
0"
03
04
#500000
1"
13
14
18
10
1#
1;
09
05
#600000
0"
03
04
#700000
1"
13
14
1<
0:
08
00
01
12
1%
0$
0#
15
#800000
0"
03
04
#900000
1"
13
14
18
10
1#
19
05
