RippleCarryAdder/simulation/qsim/RippleCarryAdder.msim.vcd
$comment
	File created using the following command:
		vcd file RippleCarryAdder.msim.vcd -direction
$end
$date
	Wed Feb 07 11:40:49 2024
$end
$version
	ModelSim Version 2020.1
$end
$timescale
	1ps
$end

$scope module RippleCarryAdder_vlg_vec_tst $end
$var reg 1 ! A0 $end
$var reg 1 " A1 $end
$var reg 1 # A2 $end
$var reg 1 $ A3 $end
$var reg 1 % B0 $end
$var reg 1 & B1 $end
$var reg 1 ' B2 $end
$var reg 1 ( B3 $end
$var reg 1 ) C0 $end
$var wire 1 * C4 $end
$var wire 1 + S0 $end
$var wire 1 , S1 $end
$var wire 1 - S2 $end
$var wire 1 . S3 $end

$scope module i1 $end
$var wire 1 / gnd $end
$var wire 1 0 vcc $end
$var wire 1 1 unknown $end
$var tri1 1 2 devclrn $end
$var tri1 1 3 devpor $end
$var tri1 1 4 devoe $end
$var wire 1 5 ~QUARTUS_CREATED_GND~I_combout $end
$var wire 1 6 ~QUARTUS_CREATED_UNVM~~busy $end
$var wire 1 7 ~QUARTUS_CREATED_ADC1~~eoc $end
$var wire 1 8 C4~output_o $end
$var wire 1 9 S0~output_o $end
$var wire 1 : S1~output_o $end
$var wire 1 ; S2~output_o $end
$var wire 1 < S3~output_o $end
$var wire 1 = A3~input_o $end
$var wire 1 > B2~input_o $end
$var wire 1 ? B1~input_o $end
$var wire 1 @ C0~input_o $end
$var wire 1 A A0~input_o $end
$var wire 1 B inst|inst~0_combout $end
$var wire 1 C B0~input_o $end
$var wire 1 D inst|inst~1_combout $end
$var wire 1 E A1~input_o $end
$var wire 1 F inst2|inst~0_combout $end
$var wire 1 G A2~input_o $end
$var wire 1 H inst4|inst~1_combout $end
$var wire 1 I inst4|inst~0_combout $end
$var wire 1 J B3~input_o $end
$var wire 1 K inst3|inst~0_combout $end
$var wire 1 L inst|inst7~0_combout $end
$var wire 1 M inst2|inst7~combout $end
$var wire 1 N inst4|inst7~0_combout $end
$var wire 1 O inst3|inst7~combout $end
$upscope $end
$upscope $end
$enddefinitions $end
#0
$dumpvars
0!
0"
0#
0$
1%
1&
0'
0(
0)
0*
1+
1,
0-
0.
0/
10
x1
12
13
14
05
z6
z7
08
19
1:
0;
0<
0=
0>
1?
0@
0A
0B
1C
0D
0E
0F
0G
0H
0I
0J
0K
1L
1M
0N
0O
$end
#100000
1!
0%
0&
1'
1>
0?
0C
1A
1N
0M
0:
1;
1-
0,
#200000
1"
0!
1%
1&
1?
1C
0A
1E
1F
1H
0N
0;
0-
1O
1<
1.
#300000
1#
1(
0"
1!
0&
0?
1A
0E
1J
1G
0F
1D
1I
0L
0O
1K
1N
1;
18
0<
09
0I
0+
0.
1*
1-
0N
1M
1:
0;
0-
1,
#400000
0'
1"
0!
1&
1?
0A
1E
0>
1F
0D
0H
1L
1N
1;
19
1I
1+
1-
0N
0M
1O
0K
08
1<
0:
0;
0-
0,
1.
0*
0O
1K
18
0<
0.
1*
#500000
1$
0%
0#
0(
1'
0"
1!
1A
0E
1>
0J
0G
0C
1=
0F
1H
0I
1M
1:
0H
1,
1N
1;
1-
1O
0K
08
1<
1.
0*
#600000
0'
1"
0!
0A
1E
0>
1F
0L
0M
0N
0;
0:
09
0+
0,
0-
1N
1;
1-
#700000
0&
1%
1#
1(
1'
0"
1!
1A
0E
1>
1J
1G
1C
0?
1D
0F
1H
1I
0O
1K
18
0<
0I
0.
1*
1M
0N
1O
1<
0;
1:
1,
0-
1.
#800000
0(
0'
1"
0!
0A
1E
0>
0J
0D
1F
0H
1L
0M
1N
0O
0<
1;
0:
19
0F
1I
1+
0,
1-
0.
1M
0N
1O
0K
08
1<
0;
1:
0I
1,
0-
1.
0*
1N
0O
1K
18
0<
1;
1-
0.
1*
1O
0K
08
1<
1.
0*
#900000
1!
1A
1D
0L
09
1F
0+
0M
0:
1I
0,
0N
0;
0-
0O
1K
18
0<
0.
1*
